{
    "name": "NodeSystem.Runtime",
    "rootNamespace": "",
    "references": [
        "GUID:4ce8efde5ad71594b98014cd5dc05486"
    ],
    "includePlatforms": [],
    "excludePlatforms": [],
    "allowUnsafeCode": false,
    "overrideReferences": false,
    "precompiledReferences": [],
    "autoReferenced": true,
    "defineConstraints": [],
    "versionDefines": [],
    "noEngineReferences": false
}